GUIAS/Guia 9/855926-Caua_Costa_Alves/Codigos/Verilog/vcd/Guia-0904.vcd
$date
	Sat Sep 29 12:55:13 2024
$end
$version
	Icarus Verilog
$end
$timescale
	1s
$end
$scope module Guia_0904 $end
$var wire 1 ! clock $end
$upscope $end
$scope module Guia_0904 $end
$var wire 1 " p $end
$upscope $end
$enddefinitions $end
$comment Show the parameter values. $end
$dumpall
$end
#0
$dumpvars
0"
0!
$end
#3
1"
#6
0"
#9
1"
#12
0"
#15
1"
#18
0"
#21
1"
#24
0"
#27
1"
#30
0"
#33
1"
#36
0"
#39
1"
#42
0"
#45
1"
#48
0"
#51
1"
#54
0"
#57
1"
#60
0"
#63
1"
#66
0"
#69
1"
#72
0"
#75
1"
#78
0"
#81
1"
#84
0"
#87
1"
#90
0"
#93
1"
#96
0"
#99
1"
#102
0"
#105
1"
#108
0"
#111
1"
#114
0"
#117
1"
#120
0"
#123
1"
#126
0"
#129
1"
#132
0"
#135
1"
#138
0"
#141
1"
#144
0"
#147
1"
#150
0"
#153
1"
#156
0"
#159
1"
#162
0"
#165
1"
#168
0"
#171
1"
#174
0"
#177
1"
#180
0"
#183
1"
#186
0"
#189
1"
#192
0"
#195
1"
#198
0"
#201
1"
#204
0"
#207
1"
#210
0"
#213
1"
#216
0"
#219
1"
#222
0"
#225
1"
#228
0"
#231
1"
#234
0"
#237
1"
#240
0"
#243
1"
#246
0"
#249
1"
#252
0"
#255
1"
#258
0"
#261
1"
#264
0"
#267
1"
#270
0"
#273
1"
#276
0"
#279
1"
#282
0"
#285
1"
#288
0"
#291
1"
#294
0"
#297
1"
#300
0"
#303
1"
#306
0"
#309
1"
#312
0"
#315
1"
#318
0"
#321
1"
#324
0"
#327
1"
#330
0"
#333
1"
#336
0"
#339
1"
#342
0"
#345
1"
#348
0"
#351
1"
#354
0"
#357
1"
#360
0"
#363
1"
#366
0"
#369
1"
#372
0"
#375
1"
#378
0"
#381
1"
#384
0"
#387
1"
#390
0"
#393
1"
#396
0"
#399
1"
#402
0"
#405
1"
#408
0"
#411
1"
#414
0"
#417
1"
#420
0"
#423
1"
#426
0"
#429
1"
#432
0"
#435
1"
#438
0"
#441
1"
#444
0"
#447
1"
#450
0"
#453
1"
#456
0"
#459
1"
#462
0"
#465
1"
#468
0"
#471
1"
#474
0"
#477
1"
